{
  "type": "service_account",
  "project_id": "facebook-254419",
  "private_key_id": "c2bfd4740e939114b043c37bcb0891e48ead100b",
  "private_key": "-----BEGIN PRIVATE KEY-----\nMIIEvwIBADANBgkqhkiG9w0BAQEFAASCBKkwggSlAgEAAoIBAQDR1ocJFDrv6j+B\n5D4g4nDW+siWi3beqicRRlOq7bL5yXELTRoyGAVNPUdCUXgWoEn8y5lvnB706wDw\nUUXd5WHn7oSS+9cgA6Gf6uvgWEvG13fmNeSlgnE+7CSZ0NmgNdKqkwSt1D+sh6Ev\ngGsysRXh6x4pueey4qfDs+VkjmlZQdtGE9hn/cZeeG/uVTAQkCGwh015UPmRchAq\nV3/qPiCFcHIytAV7RkOMRDtllRnmsgrobNGIjvtdSyvlr/det60BvPruj1CyYWzM\n8dc+F0DTO8qVVRLwIVxoP9qVJL+8tNJl1F5BTQSvMyI+9Ld6QNWVu1GFSzwt7nrB\nyN3c4F6xAgMBAAECggEAC/R7yOlSdonfNIV6Qe2+wavD7vpLA2J4s3XxFT5hxZQL\nzQnXc8pNLoZuy3UoaSsYjgbUQwDnPVtQeFCcETlk7aWn31cqbWoxjJKx/bwQFKgA\n3nB8em7DKJNj/jCxPmzEl+fkgsoSduAbD4GSse6XhWGbrENJg2ZBCkADAiqwLzfc\nMU/5sWnSmA0kqCBAHuqGtuxmLouS94p/ASN17YsNBGCB/DvKSvZ2UOWS8r+Xya5D\n0b1aQtA6dIyyBbsvQ/rknASFJb7RS46+ztxWhac1QUEj9mB1jtys9mlWEpEhelLN\nxD+L/RenHda2ge6yrwhFgFrYyjC80rWz3Zo+8XuGQQKBgQDxpv1TGFbU2jUqynzc\n4tMUL5ofXvfYi6MDUDjg/y/QqSfjnLsmQBLC7fc1DOphbGLy/X6wdiWAvYNivhFA\nhJqb16RITE3hMvFlcLTegTes5dweWFnCUKsCq4LhZT3v/M+rhqA950p915fzO1Y5\nhwAIOXCkIqI5e4zjSSwn3fA98QKBgQDeS/lpR+utTRrioaAPmUk5cEZttiBXVnvb\n9A9jAc2SZIHQ82VDb3IQWAgfFGN25EcHXAis/QELQmaQNKdzskw7ZG0CiuDOfK3y\nG3DVngAG8ZFHtzRJT9LaglCwOdnF4k2GEUnexT2eH8Rme/Qv8/ew0SMaOdv5Gx4Q\nr6ONGqBswQKBgQCD3h9xH+AKaUUII9U9aF3NLyjIo7dWKOT84uMXDMpX8Gb/E0Eh\nX2edjeQPxAuGvHHGrcRboS1X8pLm6FdbwMDp+CQC+/inwnfuZjGdFiB+rjSPLqFU\no1aer19NhkTlWC0vKdj5zuRchbC6n4+u9tdypX2tY+Tov14jjYOWAcue0QKBgQDJ\n5q9NVClWaeW1WZ8LC+pZ5QPSucx+BurQR8eB4S1ZfTf7FFYw/ZPYDFyz/cypO4TX\nxluK4vCDzXdiGrDMgHCEsR3hZUnxwYQrlYjSPINByz5sqJUw0PNty1aF+MU22egX\nkLRLRVJFwAyeGI8czrV1Pz5mn46PnnWcKiqeCkUTAQKBgQDJPJkVBE82ihIDIfTc\nzIn9rcNrfRfmpHacNaoUFuSoYQeBNpzxUTwkMM4cukU96AQWJw11ADotfEZcbiv3\ndbWHod9J2lf2cFl19orM1gcoFXWje8hQhdqj7sGIuQeEUdYEZ5al+DMMFIozS5pS\nFL8uvM/25qu6poC6/ahD8jYuSw==\n-----END PRIVATE KEY-----\n",
  "client_email": "id-23-765@facebook-254419.iam.gserviceaccount.com",
  "client_id": "115983654443283001977",
  "auth_uri": "https://accounts.google.com/o/oauth2/auth",
  "token_uri": "https://oauth2.googleapis.com/token",
  "auth_provider_x509_cert_url": "https://www.googleapis.com/oauth2/v1/certs",
  "client_x509_cert_url": "https://www.googleapis.com/robot/v1/metadata/x509/id-23-765%40facebook-254419.iam.gserviceaccount.com"
}
